<?xml version="1.0" encoding="UTF-8"?>
<svg width="90px" height="48px" viewBox="0 0 90 48" version="1.1" xmlns="http://www.w3.org/2000/svg" xmlns:xlink="http://www.w3.org/1999/xlink">
    <!-- Generator: Sketch 51.2 (57519) - http://www.bohemiancoding.com/sketch -->
    <title>Logo_header</title>
    <desc>Created with Sketch.</desc>
    <defs></defs>
    <g id="Page-1" stroke="none" stroke-width="1" fill="none" fill-rule="evenodd">
        <g id="All-time-design" transform="translate(-210.000000, -20.000000)" fill-rule="nonzero">
            <g id="Logo_header" transform="translate(210.000000, 20.000000)">
                <path d="M16.9913793,4.91896552 L12.5922414,4.91896552 L12.5922414,6.09051724 C12.2256398,5.57134749 11.7275921,5.15898542 11.1491379,4.89568966 C10.2697726,4.53164025 9.32276765,4.35969802 8.37155172,4.39137931 C7.30920528,4.3747534 6.25419067,4.56993111 5.26810345,4.96551724 C4.37644466,5.3380157 3.57095474,5.88997436 2.90172414,6.58706897 C2.22564948,7.31295588 1.69846346,8.1643613 1.35,9.09310345 C0.963400274,10.1168674 0.768770921,11.2031096 0.775862069,12.2974138 C0.759054628,13.3948269 0.943117913,14.4860592 1.31896552,15.5172414 C1.66302921,16.4389267 2.19097287,17.2809969 2.87068966,17.9922414 C3.54023079,18.6851148 4.34591965,19.2319266 5.23706897,19.5982759 C6.20201263,19.9919781 7.23638405,20.1872421 8.27844828,20.1724138 C10.3474138,20.1724138 11.7853448,19.6241379 12.5922414,18.5275862 L12.5922414,19.6758621 L12.8637931,19.6758621 L16.9913793,19.6758621 L16.9913793,4.93448276 L16.9913793,4.91896552 Z M12.3362069,13.8025862 C12.1565571,14.2492135 11.8932136,14.6573961 11.5603448,15.0051724 C11.2264443,15.3405179 10.8278558,15.6044838 10.3887931,15.7810345 C9.91543535,15.9711751 9.40922422,16.0660897 8.89913793,16.0603448 C8.39948042,16.0620464 7.9041992,15.9672053 7.44051724,15.7810345 C6.99681477,15.6046108 6.59312231,15.3407596 6.25344828,15.0051724 C5.92087898,14.6571598 5.65757465,14.2490381 5.47758621,13.8025862 C5.0840743,12.8649613 5.06739967,11.8116804 5.43103448,10.862069 C5.61283465,10.4165583 5.87593161,10.0087581 6.20689655,9.65948276 C6.54293204,9.3230903 6.9442742,9.0590494 7.3862069,8.88362069 C7.84658902,8.66993369 8.34530459,8.55119189 8.85258621,8.53448276 C9.36755501,8.53048013 9.87851128,8.62529676 10.3577586,8.8137931 C10.8019554,8.98926295 11.2058288,9.2532325 11.5448276,9.58965517 C11.8724233,9.93570988 12.1352144,10.3377802 12.3206897,10.7767241 C12.5029141,11.2304777 12.5951438,11.7153424 12.5922414,12.2043103 L12.5922414,12.3051724 C12.5994661,12.8171791 12.5072436,13.3257208 12.3206897,13.8025862 L12.3362069,13.8025862 Z" id="Shape" fill="#040505"></path>
                <rect id="Rectangle-path" fill="#040505" x="19.35" y="0" width="4.39137931" height="19.6681034"></rect>
                <rect id="Rectangle-path" fill="#040505" x="26.1310345" y="0" width="4.39137931" height="19.6681034"></rect>
                <polygon id="Shape" fill="#040505" points="34.7275862 19.6681034 39.1189655 19.6681034 39.1189655 8.25517241 41.2448276 8.25517241 41.2448276 4.92672414 39.1189655 4.92672414 39.1189655 0 34.7275862 0 34.7275862 4.92672414 32.5706897 4.92672414 32.5706897 8.25517241 34.7275862 8.25517241"></polygon>
                <path d="M72.0543103,7.94482759 C71.9513703,7.55592659 71.7806525,7.18822662 71.55,6.85862069 C71.3043525,6.51463176 71.029172,6.19272243 70.7275862,5.89655172 C69.7100731,4.91403486 68.3397553,4.38268714 66.9258621,4.42241379 C65.0125281,4.36804347 63.2241136,5.36955558 62.2706897,7.02931034 C61.4694191,5.39233409 59.7865595,4.37352182 57.9646552,4.42241379 C56.3460105,4.32409881 54.8003842,5.10729526 53.9224138,6.47068966 L53.9224138,4.91896552 L49.7637931,4.91896552 L49.7637931,19.6603448 L54.1551724,19.6603448 L54.1551724,11.637931 C54.1551724,9.56896552 54.9853448,8.53448276 56.6456897,8.53448276 C58.1974138,8.53448276 58.9603448,9.56896552 58.9344828,11.637931 L58.9344828,19.7068966 L63.3258621,19.7068966 L63.3258621,11.637931 C63.3258621,9.58189655 64.1017241,8.53448276 65.762069,8.53448276 C66.4231066,8.4774712 67.0654525,8.77212527 67.4534483,9.31034483 C67.8514348,10.0880753 68.0260037,10.9609197 67.9577586,11.8318966 L67.9577586,19.6681034 L72.3491379,19.6681034 L72.3491379,11.637931 C72.3491379,10.7767241 72.3491379,10.0862069 72.287069,9.47327586 C72.2610861,8.95726149 72.183105,8.44518535 72.0543103,7.94482759 Z" id="Shape" fill="#040505"></path>
                <path d="M88.8284483,9.31034483 C88.455968,8.36008651 87.8996544,7.49265916 87.1913793,6.75775862 C85.7317007,5.26098412 83.7268793,4.42097516 81.6362069,4.43017241 C80.6054211,4.42447252 79.5849938,4.63596004 78.6413793,5.05086207 C77.7306231,5.44625561 76.9057377,6.01550561 76.212931,6.72672414 C74.7666673,8.23522512 73.9627439,10.2464244 73.9706897,12.3362069 C73.9562855,14.4187428 74.768201,16.4220258 76.2284483,17.9068966 C76.9277902,18.6206957 77.7644289,19.1854928 78.687931,19.5672414 C79.6471171,19.9742842 80.6796015,20.1802529 81.7215517,20.1724138 C83.2443075,20.1887276 84.7320351,19.7154834 85.9655172,18.8224138 C87.2661831,17.8656208 88.2781915,16.5690689 88.8905172,15.075 L84.4060345,15.075 L84.2896552,15.1758621 C84.2507759,15.2045302 84.2189363,15.2416764 84.1965517,15.2844828 C83.8270985,15.6676333 83.3871527,15.9758588 82.9008621,16.1922414 C82.4506481,16.3647818 81.9707406,16.4465243 81.4887931,16.4327586 C80.6819302,16.4514434 79.8958792,16.175636 79.2775862,15.6568966 C78.6847759,15.1538128 78.3140398,14.4374281 78.2456897,13.662931 L89.3017241,13.662931 C89.3405172,13.4068966 89.3715517,13.2051724 89.387069,13.0577586 C89.4014992,12.8588821 89.4014992,12.6592213 89.387069,12.4603448 C89.4025883,11.3843977 89.2130022,10.3153431 88.8284483,9.31034483 Z M78.362069,10.7301724 C78.4973576,9.98041517 78.8997925,9.30509628 79.4948276,8.82931034 C80.8180903,7.93236308 82.5590846,7.95091719 83.862931,8.87586207 C84.4516374,9.33726388 84.8538984,9.99575967 84.9956897,10.7301724 L78.362069,10.7301724 Z" id="Shape" fill="#040505"></path>
                <rect id="Rectangle-path" fill="#040505" x="43.2853448" y="4.90344828" width="4.39137931" height="14.7724138"></rect>
                <path d="M31.4534483,26.6586207 C30.7476718,25.9375914 29.9066248,25.362832 28.9784483,24.9672414 C27.9993025,24.5438345 26.9416757,24.3323091 25.875,24.3465517 C24.8438403,24.3370689 23.8226264,24.5487194 22.8801724,24.9672414 C21.9681777,25.364518 21.1410904,25.9334697 20.4439655,26.6431034 C19.0024014,28.1508968 18.2014624,30.1588066 18.2094828,32.2448276 C18.1978011,33.3097241 18.4037334,34.365787 18.8146552,35.3482759 C19.1951702,36.2778219 19.7539507,37.1239001 20.4594828,37.8387931 C21.1627004,38.5534677 22.001502,39.120582 22.9267241,39.5068966 C23.8859102,39.9139394 24.9183946,40.1199081 25.9603448,40.112069 C27.5056374,40.1345612 29.0156262,39.6494024 30.2586207,38.7310345 C31.5587268,37.7769361 32.5707721,36.4830214 33.1836207,34.9913793 L28.7068966,34.9913793 L28.5905172,35.0922414 C28.5536201,35.1199346 28.5220714,35.1541122 28.4974138,35.1931034 C28.1164348,35.5858089 27.6598345,35.8972472 27.1551724,36.1086207 C26.7029911,36.2731083 26.2241549,36.3520374 25.7431034,36.3413793 C24.9361273,36.3607799 24.1498307,36.0848864 23.5318966,35.5655172 C22.9475184,35.0688791 22.5777786,34.3655395 22.5,33.6025862 L33.5637931,33.6025862 C33.6025862,33.3465517 33.6336207,33.1448276 33.6491379,32.9974138 C33.6637531,32.7959544 33.6637531,32.5937008 33.6491379,32.3922414 C33.6603027,31.3037284 33.4600466,30.2233995 33.0594828,29.2112069 C32.6962491,28.2634885 32.1505981,27.396246 31.4534483,26.6586207 Z M22.6241379,30.6543103 C22.7594266,29.9045531 23.1618615,29.2292342 23.7568966,28.7534483 C25.0774028,27.8473951 26.8241034,27.8660101 28.125,28.8 C28.7180406,29.2575299 29.1213909,29.9178088 29.2577586,30.6543103 L22.6241379,30.6543103 Z" id="Shape" fill="#0068E5"></path>
                <path d="M45.1862069,32.0275862 C44.9593868,31.8028485 44.6972989,31.6167661 44.4103448,31.4767241 C44.023944,31.2926454 43.624604,31.1370584 43.2155172,31.0112069 C42.7267241,30.8482759 42.1060345,30.662069 41.3301724,30.4448276 C40.7041646,30.3132341 40.1073576,30.0687273 39.5689655,29.7232759 C39.2552366,29.5288405 39.0577819,29.192006 39.0413793,28.8232759 C39.0386684,28.5465806 39.1835263,28.2893839 39.4215517,28.1482759 C39.7200342,27.959346 40.069585,27.8672163 40.4224138,27.8844828 C40.7387205,27.842567 41.057948,27.9369367 41.3006227,28.1440981 C41.5432975,28.3512595 41.6865903,28.6517241 41.6948276,28.9706897 L45.9931034,28.9706897 C45.9185008,27.6748199 45.3291039,26.4625058 44.3560345,25.6034483 C43.2882991,24.7467652 41.9451282,24.3082351 40.5775862,24.3698276 C39.7856519,24.3619832 38.9982822,24.4905869 38.25,24.75 C37.56473,24.9834748 36.9244581,25.3324754 36.3568966,25.7818966 C35.8306182,26.2021297 35.4017876,26.7315501 35.1,27.3336207 C34.798515,27.9218576 34.641592,28.5734869 34.6422414,29.2344828 C34.650522,30.1687636 34.9668796,31.0742008 35.5422414,31.8103448 C35.8206164,32.1724731 36.1560284,32.4869219 36.5353448,32.7413793 C36.9165747,33.0064359 37.3422925,33.2008996 37.7922414,33.3155172 L40.3991379,33.9982759 C41.5396552,34.3086207 42.1137931,34.7741379 42.1137931,35.4724138 C42.1002765,35.7932565 41.9250116,36.0853646 41.6482759,36.2482759 C41.3267264,36.4687428 40.9440873,36.5827204 40.5543103,36.5741379 C39.5301724,36.5741379 38.9560345,36.1241379 38.8396552,35.2163793 L34.4793103,35.2163793 C34.5430218,35.923167 34.7432745,36.6108769 35.0689655,37.2413793 C35.3672049,37.8391526 35.7874502,38.367763 36.3025862,38.7931034 C36.8367059,39.226027 37.4472506,39.5549842 38.1025862,39.762931 C38.8374743,39.9964376 39.6048032,40.1116679 40.3758621,40.1043103 C41.1956977,40.1123832 42.0111569,39.9839025 42.7887931,39.7241379 C43.4944122,39.4920913 44.1536274,39.1375333 44.7362069,38.6767241 C45.2728108,38.2567584 45.7143945,37.7279157 46.0318966,37.125 C46.3475365,36.508012 46.5098759,35.8240573 46.5051724,35.1310345 C46.5263484,34.3028957 46.2875839,33.4889256 45.8224138,32.8034483 C45.6325055,32.5274231 45.4196841,32.2678849 45.1862069,32.0275862 Z" id="Shape" fill="#0068E5"></path>
                <path d="M85.7017241,27.6284483 C85.5970201,27.2971234 85.4482758,26.9813679 85.2594828,26.6896552 C85.0549699,26.3812568 84.8125581,26.0997464 84.537931,25.8517241 C84.0413948,25.3621635 83.446302,24.983949 82.7922414,24.7422414 C82.0832627,24.4748297 81.3309864,24.3406825 80.5732759,24.3465517 C79.7701445,24.3188655 78.972051,24.4838048 78.2456897,24.8275862 C77.5649384,25.2036963 76.9827303,25.7353932 76.5465517,26.3793103 L76.5465517,24.8275862 L72.3646552,24.8275862 L72.3646552,39.5689655 L76.7560345,39.5689655 L76.7560345,31.337069 C76.7560345,29.4077586 77.6017241,28.4431034 79.2931034,28.4431034 C79.976819,28.394267 80.6409289,28.6842713 81.0698276,29.2189655 C81.4886901,29.9196161 81.681068,30.7324808 81.6206897,31.5465517 L81.6206897,39.5689655 L86.012069,39.5689655 L86.012069,30.3594828 C86.015474,29.8413851 85.9921672,29.3234564 85.9422414,28.8077586 C85.8975102,28.4082515 85.8170149,28.013565 85.7017241,27.6284483 Z" id="Shape" fill="#0068E5"></path>
                <path d="M16.9913793,21.9956897 L12.5922414,21.9956897 L12.5922414,26.0068966 C12.2220006,25.4949363 11.7245814,25.0884432 11.1491379,24.8275862 C10.2708119,24.4600156 9.32303249,24.2879327 8.37155172,24.3232759 C7.30920528,24.30665 6.25419067,24.5018277 5.26810345,24.8974138 C4.36382969,25.2633319 3.54690946,25.8158767 2.87068966,26.5189655 C2.194615,27.2448524 1.66742898,28.0962579 1.31896552,29.025 C0.943966275,30.045646 0.759869859,31.1265549 0.775862069,32.2137931 C0.760097605,33.3111267 0.944129281,34.4021716 1.31896552,35.4336207 C1.66302921,36.355306 2.19097287,37.1973762 2.87068966,37.9086207 C3.54023079,38.6014941 4.34591965,39.1483059 5.23706897,39.5146552 C6.20808119,39.9061647 7.2470711,40.101305 8.29396552,40.0887931 C10.362931,40.0887931 11.8008621,39.537931 12.6077586,38.4362069 L12.6077586,39.5689655 L12.8793103,39.5689655 L16.9913793,39.5689655 L16.9913793,24.8275862 L16.9913793,21.9956897 Z M12.3362069,33.7267241 C12.1565385,34.1710367 11.8931392,34.5766716 11.5603448,34.9215517 C11.2260345,35.2563965 10.8275547,35.5202904 10.3887931,35.6974138 C9.91543535,35.8875545 9.40922422,35.982469 8.89913793,35.9767241 C8.3937504,35.977972 7.89298874,35.8804552 7.425,35.6896552 C6.97167642,35.5140861 6.55766011,35.2503814 6.20689655,34.9137931 C5.87432726,34.5657805 5.61102293,34.1576588 5.43103448,33.7112069 C5.04834983,32.7630185 5.04834983,31.7033608 5.43103448,30.7551724 C5.61283465,30.3096618 5.87593161,29.9018615 6.20689655,29.5525862 C6.54106339,29.2139086 6.94291539,28.9495323 7.3862069,28.7767241 C7.84673455,28.5890504 8.33977993,28.4941326 8.83706897,28.4974138 C9.35203777,28.4934112 9.86299403,28.5882278 10.3422414,28.7767241 C10.7879841,28.9491936 11.1924391,29.2135433 11.5293103,29.5525862 C11.8602413,29.8959949 12.1234593,30.2987185 12.3051724,30.7396552 C12.4881654,31.1931833 12.5804242,31.678201 12.5767241,32.1672414 L12.5767241,32.2681034 C12.5839353,32.7660907 12.4970695,33.260963 12.3206897,33.7267241 L12.3362069,33.7267241 Z" id="Shape" fill="#0068E5"></path>
                <rect id="Rectangle-path" fill="#0068E5" x="48.1810345" y="24.812069" width="4.39137931" height="14.7724138"></rect>
                <path d="M66.537931,42.2068966 L66.537931,42.2456897 C66.4871859,42.310766 66.4299993,42.3705521 66.3672414,42.4241379 C66.3672414,42.4706897 66.2818966,42.5094828 66.2353448,42.5560345 L66.1034483,42.6724138 L65.8396552,42.8896552 L65.6844828,43.0060345 L65.5991379,43.0681034 C65.5679748,43.0815386 65.5391623,43.0998739 65.5137931,43.1224138 C65.3734531,43.2151547 65.2284337,43.3006125 65.0793103,43.3784483 C64.9712137,43.4460883 64.8569011,43.5032446 64.737931,43.5491379 C64.6737908,43.5864926 64.6062458,43.6176672 64.5362069,43.6422414 L64.4586207,43.6422414 L64.2568966,43.7198276 C64.1688879,43.7577464 64.0781054,43.7888719 63.9853448,43.812931 L63.5896552,43.9215517 L63.4887931,43.9215517 C63.3590458,43.954169 63.2266061,43.9749438 63.0931034,43.9836207 L63.0232759,43.9836207 L62.8137931,43.9836207 C62.6508621,43.9836207 62.487931,43.9836207 62.3172414,43.9836207 C62.1465517,43.9836207 61.9836207,43.9836207 61.8206897,43.9836207 L61.6112069,43.9836207 L61.5258621,43.9836207 C61.3924271,43.9743388 61.2600405,43.9535723 61.1301724,43.9215517 L61.0448276,43.9215517 L60.6491379,43.812931 C60.5560345,43.812931 60.4551724,43.7586207 60.362069,43.7198276 L60.1603448,43.6422414 L60.0672414,43.6422414 C59.9972025,43.6176672 59.9296575,43.5864926 59.8655172,43.5491379 C59.7465472,43.5032446 59.6322346,43.4460883 59.5241379,43.3784483 C59.3750145,43.3006125 59.2299952,43.2151547 59.0896552,43.1224138 L58.9655172,43.0681034 L58.8801724,43.0060345 C58.8203206,42.9717637 58.7632491,42.9328513 58.7094828,42.8896552 L58.4689655,42.6724138 L58.3525862,42.5560345 C58.2998872,42.516219 58.2505803,42.4721023 58.2051724,42.4241379 C58.1424145,42.3705521 58.0852279,42.310766 58.0344828,42.2456897 C57.2586207,43.0215517 56.0715517,44.1853448 55.2724138,44.9767241 C55.6511875,45.386839 56.0696044,45.7584763 56.5215517,46.0862069 C56.7465517,46.2568966 56.9793103,46.412069 57.2198276,46.5594828 C57.44989,46.7097785 57.6881947,46.8470627 57.9336207,46.9706897 L58.4146552,47.1956897 L58.9577586,47.412931 L59.112931,47.4672414 L59.5474138,47.6068966 L59.7336207,47.6612069 L60.2844828,47.7931034 C60.4939655,47.8396552 60.7112069,47.8784483 60.9284483,47.9094828 C61.1146552,47.9094828 61.3008621,47.9560345 61.487069,47.9715517 C61.6732759,47.987069 61.9991379,47.9715517 62.262931,47.9715517 C62.5267241,47.9715517 62.7827586,47.9715517 63.0387931,47.9715517 C63.2948276,47.9715517 63.4112069,47.9715517 63.5974138,47.9094828 C63.8146552,47.9094828 64.0318966,47.8396552 64.2413793,47.7931034 L64.7922414,47.6612069 L64.9784483,47.6068966 L65.3974138,47.4672414 L65.5525862,47.412931 L66.0956897,47.1956897 L66.5767241,46.9706897 C66.825,46.8387931 67.0732759,46.7068966 67.3060345,46.5594828 C67.5387931,46.412069 67.7793103,46.2568966 68.0043103,46.0862069 C68.4493391,45.7499512 68.8670254,45.3789627 69.2534483,44.9767241 C68.4775862,44.2008621 67.2905172,43.0448276 66.4913793,42.2456897 L66.537931,42.2068966 Z" id="Shape" fill="#0068E5"></path>
                <path d="M70.2155172,32.4310345 L70.2155172,24.2612069 L66.0801724,24.2612069 L66.0801724,25.6034483 C65.8689564,25.4900858 65.6513504,25.3890545 65.4284483,25.3008621 C64.4190068,24.9001438 63.3411828,24.6998635 62.2551724,24.7112069 C61.1600793,24.699104 60.0735049,24.9048147 59.0586207,25.3163793 C57.1527386,26.070911 55.642559,27.5782836 54.8844828,29.4827586 C54.4900567,30.4908345 54.2950708,31.5658916 54.3103448,32.6482759 C54.3012508,33.7129352 54.5070826,34.7684829 54.9155172,35.7517241 C55.2982187,36.6766167 55.8658624,37.5135611 56.5836207,38.2112069 C57.3090914,38.9125792 58.1660274,39.463655 59.1051724,39.8327586 C60.1219313,40.2362673 61.2079157,40.4365946 62.3017241,40.4224138 C63.3803022,40.4351331 64.4507764,40.2347487 65.4517241,39.8327586 C66.3911622,39.4544445 67.2457493,38.8926326 67.9655172,38.1801724 C68.6698096,37.4642752 69.2284196,36.6184553 69.6103448,35.6896552 C70.0167521,34.705803 70.2225029,33.6506706 70.2155172,32.5862069 C70.2155172,32.5474138 70.2155172,32.5086207 70.2155172,32.462069 L70.2155172,32.4310345 Z M65.5603448,34.0448276 C65.3888127,34.4866729 65.1391416,34.894031 64.8232759,35.2474138 C64.5055458,35.5840973 64.1192627,35.8486748 63.6905172,36.0232759 C63.250681,36.217095 62.7745907,36.314958 62.2939655,36.3103448 C61.3334376,36.32058 60.4107572,35.9363636 59.7413793,35.2474138 C59.4052748,34.8962704 59.1416351,34.4823561 58.9655172,34.0293103 C58.7832401,33.5485458 58.6911836,33.0382894 58.6939655,32.5241379 C58.6852853,32.0271171 58.7776709,31.5335137 58.9655172,31.0732759 C59.149002,30.6332749 59.4120165,30.2308627 59.7413793,29.8862069 C60.0655702,29.5571618 60.4501802,29.2937303 60.8741379,29.1103448 C61.3238834,28.9124929 61.8103952,28.8120177 62.3017241,28.8155172 C62.7779836,28.8126631 63.2491836,28.9132563 63.6827586,29.1103448 C64.1009052,29.2959513 64.4800271,29.5592304 64.8,29.8862069 C65.4720046,30.6234101 65.8381791,31.5887794 65.8241379,32.5862069 C65.823857,33.0849545 65.7318072,33.5793933 65.5525862,34.0448276 L65.5603448,34.0448276 Z" id="Shape" fill="#0068E5"></path>
            </g>
        </g>
    </g>
</svg>